…
df_data_raw
```

    ## # A tibble: 42,817 x 10
    ##    country     gdp iso_code continent date       cases deaths cases_per1M
    ##    <chr>     <dbl> <chr>    <chr>     <date>     <dbl>  <dbl>       <dbl>
    ##  1 Afghan… 1.91e10 AFG      Asia      2019-12-31     0      0           0
    ##  2 Afghan… 1.91e10 AFG      Asia      2020-01-01     0      0           0
    ##  3 Afghan… 1.91e10 AFG      Asia      2020-01-02     0      0           0
    ##  4 Afghan… 1.91e10 AFG      Asia      2020-01-03     0      0           0
    ##  5 Afghan… 1.91e10 AFG      Asia      2020-01-04     0      0           0
    ##  6 Afghan… 1.91e10 AFG      Asia      2020-01-05     0      0           0
    ##  7 Afghan… 1.91e10 AFG      Asia      2020-01-06     0      0           0
    ##  8 Afghan… 1.91e10 AFG      Asia      2020-01-07     0      0           0
    ##  9 Afghan… 1.91e10 AFG      Asia      2020-01-08     0      0           0
    ## 10 Afghan… 1.91e10 AFG      Asia      2020-01-09     0      0           0
    ## # … with 42,807 more rows, and 2 more variables: deaths_per1M <dbl>,
    ## #   population <dbl>
…
<!-- -------------------------------------------------- -->

We are going to calculate GDP per capita so that our measurements to
compare the countries are standardized, and we can get more “honest”
measurements and comparisons.

``` r
df_data_norm <- df_data_raw %>% 
                  mutate(gdpPerCap = (gdp/population), na.rm = TRUE) %>% 
                    select(continent, country, gdpPerCap, date, cases_per1M, deaths_per1M)
df_data_norm
```

    ## # A tibble: 42,817 x 6
    ##    continent country     gdpPerCap date       cases_per1M deaths_per1M
    ##    <chr>     <chr>           <dbl> <date>           <dbl>        <dbl>
    ##  1 Asia      Afghanistan      491. 2019-12-31           0            0
    ##  2 Asia      Afghanistan      491. 2020-01-01           0            0
    ##  3 Asia      Afghanistan      491. 2020-01-02           0            0
    ##  4 Asia      Afghanistan      491. 2020-01-03           0            0
    ##  5 Asia      Afghanistan      491. 2020-01-04           0            0
    ##  6 Asia      Afghanistan      491. 2020-01-05           0            0
    ##  7 Asia      Afghanistan      491. 2020-01-06           0            0
    ##  8 Asia      Afghanistan      491. 2020-01-07           0            0
    ##  9 Asia      Afghanistan      491. 2020-01-08           0            0
    ## 10 Asia      Afghanistan      491. 2020-01-09           0            0
    ## # … with 42,807 more rows
…
